{
    "FunctionName": "get-impression-from-key",
    "Role": "arn:aws:iam::205746061435:role/Nexplayer-License-Lambda",
    "Handler": "index.lambdaHandler",
    "Description": "PROD API v2 deployment",
    "Timeout": 3,
    "MemorySize": 128,
    "Environment": {
        "Variables": {
            "DYNAMO_TABLE": "nexplayer-impressions"
        }
    },
    "Runtime": "nodejs14.x"
}